A Practical Guide to Ecosystem Forecasting - 11 Project 1: Create model and submit
…
split

<Training/Testing/Total>
<3588/898/4486>

To actually get the training and testing data we need to apply the training() and testing() functions to the split.

train_data <- training(split)
test_data <- testing(split)

You can see that train_data is a data frame that we can work with.

train_data

# A tibble: 3,588 × 5
   datetime   site_id temperature air_temperature   doy
   <date>     <chr>         <dbl>           <dbl> <dbl>
 1 2017-08-27 BARC           31.5              NA   239
 2 2017-08-28 BARC           31.1              NA   240
 3 2017-08-29 BARC           31.1              NA   241
 4 2017-08-30 BARC           31.4              NA   242
 5 2017-08-31 BARC           31.7              NA   243
 6 2017-09-01 BARC           31.6              NA   244
 7 2017-09-02 BARC           31.1              NA   245
 8 2017-09-03 BARC           31.1              NA   246
 9 2017-09-06 BARC           30.8              NA   249
10 2017-09-07 BARC           30.5              NA   250
# ℹ 3,578 more rows
…
Coefficients:
    (Intercept)      site_idSUGG  air_temperature              doy  
       5.308760        -0.735499         0.858610         0.004031  

11.1.8.5 Step 5: Predict Test Data

Now we will predict the testing data using the model that was fit to the training data.

predictions <- predict(fit, new_data = test_data)

The predictions are a single column called .pred

predictions

# A tibble: 898 × 1
   .pred
   <dbl>
 1    NA
 2    NA
 3    NA
 4    NA
 5    NA
 6    NA
 7    NA
 8    NA
 9    NA
10    NA
# ℹ 888 more rows

We need to combine the .pred column with the testing data using the bind_cols function

pred_test <- bind_cols(test_data, predictions)

Now we have a data frame with the prediction and all the predictors used to predict it.

pred_test

# A tibble: 898 × 6
   datetime   site_id temperature air_temperature   doy .pred
   <date>     <chr>         <dbl>           <dbl> <dbl> <dbl>
 1 2017-09-04 BARC           31.4              NA   247    NA
 2 2017-09-05 BARC           31.0              NA   248    NA
 3 2017-09-14 BARC           28.5              NA   257    NA
 4 2017-09-17 BARC           28.8              NA   260    NA
 5 2017-09-22 BARC           29.0              NA   265    NA
 6 2017-10-04 BARC           27.6              NA   277    NA
 7 2017-10-06 BARC           27.6              NA   279    NA
 8 2017-10-10 BARC           29.5              NA   283    NA
 9 2017-10-11 BARC           29.6              NA   284    NA
10 2017-10-14 BARC           28.5              NA   287    NA
# ℹ 888 more rows
…
The final step is to apply your model to predict new data.

Now read in the new data.

targets_future <- noaa_future_daily |> 
  mutate(temperature = NA,
         doy = yday(datetime)) |> 
  filter(parameter == 1) |> 
  select(-parameter)

You will notice that the temperature is all NA because you don’t know what the carbon stock is of the plot.

targets_future

# A tibble: 68 × 5
   datetime   site_id air_temperature temperature   doy
   <date>     <chr>             <dbl> <lgl>       <dbl>
 1 2024-02-16 SUGG               17.2 NA             47
 2 2024-02-17 SUGG               14.6 NA             48
 3 2024-02-18 SUGG               13.1 NA             49
 4 2024-02-19 SUGG               12.7 NA             50
 5 2024-02-20 SUGG               14.2 NA             51
 6 2024-02-21 SUGG               15.5 NA             52
 7 2024-02-22 SUGG               16.2 NA             53
 8 2024-02-23 SUGG               17.1 NA             54
 9 2024-02-24 SUGG               16.9 NA             55
10 2024-02-25 SUGG               15.6 NA             56
# ℹ 58 more rows
…
